-----BEGIN PGP SIGNATURE-----

iHUEABYIAB0WIQRLSiy56hzPvq1pYJruVLzHiGEHrgUCYwapUQAKCRDuVLzHiGEH
ri9GAQDL6k7wQLTd/FmtI/WLEWInrcy5dBla2MYrOcnEneI9OQD8DbSVrfzNdRgo
94EiRB9imKNkHJhqRVAdSR69HZ3TIgg=
=9dpA
-----END PGP SIGNATURE-----
