-----BEGIN PGP SIGNATURE-----

iHUEABYIAB0WIQRLSiy56hzPvq1pYJruVLzHiGEHrgUCYwapUAAKCRDuVLzHiGEH
rmSvAQCoof/03tsaWzCJwxj9Lqop8rUrbMmGVnsIjguEFR+qlAEAxu6fszsufK7H
jNXuUnEFBftryG5/P71htH3kiqLiSwk=
=BHWR
-----END PGP SIGNATURE-----
