-----BEGIN PGP SIGNATURE-----

iHUEABYIAB0WIQRLSiy56hzPvq1pYJruVLzHiGEHrgUCYwapTwAKCRDuVLzHiGEH
rse/AQCrR8W73vzNuAjMStbHesWQkmrzT2Z8xmFA2lVQKUSB/QD/Tgm3mjnXJdjR
ZKKn1N1nxjX80wxXPH7HA5Y7WjLIiAQ=
=Vspd
-----END PGP SIGNATURE-----
